…
In order to figure the interval with the largest average steps we will
sort the data by steps.

    sort<-arrange(totalinterval, desc(totalinterval$total))
    sort

    ## # A tibble: 288 x 2
    ##    interval    total
    ##       <int>    <dbl>
    ##  1      835 206.1698
    ##  2      840 195.9245
    ##  3      850 183.3962
    ##  4      845 179.5660
    ##  5      830 177.3019
    ##  6      820 171.1509
    ##  7      855 167.0189
    ##  8      815 157.5283
    ##  9      825 155.3962
    ## 10      900 143.4528
    ## # ... with 278 more rows
…
